<?xml version="1.0" encoding="UTF-8" standalone="no"?>
<!DOCTYPE svg PUBLIC "-//W3C//DTD SVG 1.1//EN" "http://www.w3.org/Graphics/SVG/1.1/DTD/svg11.dtd">
<svg width="100%" height="100%" viewBox="0 0 5907 5907" version="1.1" xmlns="http://www.w3.org/2000/svg" xmlns:xlink="http://www.w3.org/1999/xlink" xml:space="preserve" xmlns:serif="http://www.serif.com/" style="fill-rule:evenodd;clip-rule:evenodd;stroke-linejoin:round;stroke-miterlimit:2;">
  <g transform="matrix(1,0,0,1,-5,-5)">
    <g transform="matrix(3.70797e-17,1.00349,-1.00983,3.79471e-17,5931.37,-10.3849)">
      <g id="Adduction">
        <path id="Adduction1" serif:id="Adduction" d="M2958.5,20L5901,5868L16,5868L2958.5,20Z"/>
      </g>
    </g>
  </g>
</svg>
