{
    "microgesture": {
        "type": "seq",
        "quantificators": {
            "x": [
                [
                    [
                        "index"
                    ]
                ]
            ]
        },
        "seq": {
            "type": "then",
            "operands": [
                {
                    "type": "glyph",
                    "action": "Flexion",
                    "context": [
                        "Air",
                        "Contact"
                    ],
                    "actuator": [
                        [
                            "thumb"
                        ]
                    ],
                    "contact": {
                        "action": "Contact",
                        "actuator": [
                            [
                                "x1"
                            ]
                        ]
                    }
                },
                {
                    "type": "glyph",
                    "action": "Flexion",
                    "context": [
                        "Contact",
                        "Contact"
                    ],
                    "actuator": [
                        [
                            "thumb"
                        ]
                    ],
                    "contact": {
                        "action": "Contact",
                        "actuator": [
                            [
                                "x1"
                            ]
                        ]
                    }
                },
                {
                    "type": "glyph",
                    "action": "Extension",
                    "context": [
                        "Contact",
                        "Air"
                    ],
                    "actuator": [
                        [
                            "thumb"
                        ]
                    ]
                }
            ]
        },
        "listOfVariable": [
            {
                "name": "x1",
                "isDefined": false,
                "flagHasChanged": false,
                "formula": [
                    [
                        "index"
                    ]
                ]
            }
        ]
    },
    "name": "swipe down"
}